Final Project
…
Data Frame Manipulation

Edit the sub_use data frame so that 1. unneeded rows (US total, N, S, E, W) are deleted, 2. columns needed are re-named to names without number characters, and 3. only columns that are needed are included

sub_use <- sub_use[-c(1,2,3,4,5), ]
names(sub_use)[3]<-"twelve_or_older"
names(sub_use)[6]<-"twelve_to_seventeen"
names(sub_use)[9]<-"eighteen_to_twentyfive"
names(sub_use)[12]<-"twentysix_or_older"
names(sub_use)[15]<-"eighteen_or_older"
sub_use <- select(sub_use, State, twelve_or_older, twelve_to_seventeen, eighteen_to_twentyfive, twentysix_or_older, eighteen_or_older)
print(sub_use)

## # A tibble: 51 x 6
##    State twelve_or_older twelve_to_seven~ eighteen_to_twe~ twentysix_or_ol~
##    <chr>           <dbl>            <dbl>            <dbl>            <dbl>
##  1 Alab~          0.0659           0.0396            0.121           0.0601
##  2 Alas~          0.0898           0.0654            0.165           0.0804
##  3 Ariz~          0.0745           0.0477            0.160           0.0636
##  4 Arka~          0.0737           0.041             0.136           0.0676
##  5 Cali~          0.0748           0.0463            0.142           0.0669
##  6 Colo~          0.0876           0.056             0.194           0.0739
##  7 Conn~          0.084            0.0464            0.183           0.0722
##  8 Dela~          0.0853           0.0432            0.161           0.0786
##  9 Dist~          0.112            0.0514            0.192           0.100 
## 10 Flor~          0.0695           0.0454            0.146           0.0614
## # ... with 41 more rows, and 1 more variable: eighteen_or_older <dbl>

Edit the srs_mental_ill data frame so that 1. unneeded rows (US total, N, S, E, W) are deleted, 2. columns needed are re-named to names without number characters, and 3. only columns that are needed are included

srs_mental_ill <- srs_mental_ill[-c(1,2,3,4,5), ]
names(srs_mental_ill)[3]<-"eighteen_or_older"
names(srs_mental_ill)[6]<-"eighteen_to_twentyfive"
names(srs_mental_ill)[9]<-"twentysix_or_older"
srs_mental_ill <- select(srs_mental_ill, State, eighteen_or_older, eighteen_to_twentyfive, twentysix_or_older)
print(srs_mental_ill)

## # A tibble: 51 x 4
##    State           eighteen_or_older eighteen_to_twentyf~ twentysix_or_old~
##    <chr>                       <dbl>                <dbl>             <dbl>
##  1 Alabama                    0.048                0.0595            0.0462
##  2 Alaska                     0.0502               0.0853            0.0443
##  3 Arizona                    0.0413               0.0637            0.0376
##  4 Arkansas                   0.0544               0.0665            0.0525
##  5 California                 0.0394               0.0661            0.0348
##  6 Colorado                   0.0508               0.0867            0.0449
##  7 Connecticut                0.0416               0.0743            0.0363
##  8 Delaware                   0.049                0.077             0.0448
##  9 District of Co~            0.0443               0.0625            0.0408
## 10 Florida                    0.0383               0.0641            0.0348
## # ... with 41 more rows
…
